{
  "images" : [
    {
      "idiom" : "universal",
      "filename" : "ac520ff731680f779783a0cac876e6a7.png",
      "scale" : "1x"
    },
    {
      "idiom" : "universal",
      "filename" : "ac520ff731680f779783a0cac876e6a7@2x.png",
      "scale" : "2x"
    },
    {
      "idiom" : "universal",
      "filename" : "ac520ff731680f779783a0cac876e6a7@3x.png",
      "scale" : "3x"
    }
  ],
  "info" : {
    "version" : 1,
    "author" : "xcode"
  }
}