{
  "images" : [
    {
      "idiom" : "universal",
      "filename" : "492adcf359076d7419a9668c7f73dd46.png",
      "scale" : "1x"
    },
    {
      "idiom" : "universal",
      "filename" : "492adcf359076d7419a9668c7f73dd46@2x.png",
      "scale" : "2x"
    },
    {
      "idiom" : "universal",
      "filename" : "492adcf359076d7419a9668c7f73dd46@3x.png",
      "scale" : "3x"
    }
  ],
  "info" : {
    "version" : 1,
    "author" : "xcode"
  }
}